{
  "@context": {
    "cred": "https://www.w3.org/2018/credentials/#",
    "gax-service": "https://schemas.abc-federation.gaia-x.community/wip/vocab/service#",
    "gax-compliance": "https://schemas.abc-federation.gaia-x.community/wip/vocab/compliance#",
    "xsd": "http://www.w3.org/2001/XMLSchema#",
    "gax-validation": "https://schemas.abc-federation.gaia-x.community/wip/vocab/validation#",
    "vcard": "http://www.w3.org/2006/vcard/ns#",
    "gax-core": "https://schemas.abc-federation.gaia-x.community/wip/vocab/core#",
    "gax-participant": "https://schemas.abc-federation.gaia-x.community/wip/vocab/participant#",
    "dct": "http://purl.org/dc/terms/",
    "sh": "http://www.w3.org/ns/shacl#",
    "gax-node": "https://schemas.abc-federation.gaia-x.community/wip/vocab/node#",
    "dcat": "http://www.w3.org/ns/dcat#",
    "gax-resource": "https://schemas.abc-federation.gaia-x.community/wip/vocab/resource#"
  },
  "@graph": [
    {
      "@context": {
        "cred": "https://www.w3.org/2018/credentials/#",
        "gax-service": "https://schemas.abc-federation.gaia-x.community/wip/vocab/service#",
        "gax-compliance": "https://schemas.abc-federation.gaia-x.community/wip/vocab/compliance#",
        "xsd": "http://www.w3.org/2001/XMLSchema#",
        "gax-validation": "https://schemas.abc-federation.gaia-x.community/wip/vocab/validation#",
        "vcard": "http://www.w3.org/2006/vcard/ns#",
        "gax-core": "https://schemas.abc-federation.gaia-x.community/wip/vocab/core#",
        "gax-participant": "https://schemas.abc-federation.gaia-x.community/wip/vocab/participant#",
        "dct": "http://purl.org/dc/terms/",
        "sh": "http://www.w3.org/ns/shacl#",
        "gax-node": "https://schemas.abc-federation.gaia-x.community/wip/vocab/node#",
        "dcat": "http://www.w3.org/ns/dcat#",
        "gax-resource": "https://schemas.abc-federation.gaia-x.community/wip/vocab/resource#"
      },
      "@id": "did:web:ovh.provider.gaia-x.community/public/json-ld/location/12.json",
      "@type": "gax-participant:Location",
      "gax-participant:hasProvider": {
        "@id": "did:web:ovh.provider.gaia-x.community/public/json-ld/provider.json"
      },
      "gax-service:canHostServiceOffering": {
        "@id": "did:web:ovh.provider.gaia-x.community/public/json-ld/service-offering/S-01.json"
      },
      "gax-participant:hasAdministrativeLocation": {
        "@value": "CA-QC",
        "@type": "xsd:string"
      },
      "gax-participant:hasLocatedServiceOffering": {
        "@id": "did:web:ovh.provider.gaia-x.community/public/json-ld/located-service-offering/S-01.json"
      }
    },
    {
      "@context": {
        "cred": "https://www.w3.org/2018/credentials/#",
        "gax-service": "https://schemas.abc-federation.gaia-x.community/wip/vocab/service#",
        "gax-compliance": "https://schemas.abc-federation.gaia-x.community/wip/vocab/compliance#",
        "xsd": "http://www.w3.org/2001/XMLSchema#",
        "gax-validation": "https://schemas.abc-federation.gaia-x.community/wip/vocab/validation#",
        "vcard": "http://www.w3.org/2006/vcard/ns#",
        "gax-core": "https://schemas.abc-federation.gaia-x.community/wip/vocab/core#",
        "gax-participant": "https://schemas.abc-federation.gaia-x.community/wip/vocab/participant#",
        "dct": "http://purl.org/dc/terms/",
        "sh": "http://www.w3.org/ns/shacl#",
        "gax-node": "https://schemas.abc-federation.gaia-x.community/wip/vocab/node#",
        "dcat": "http://www.w3.org/ns/dcat#",
        "gax-resource": "https://schemas.abc-federation.gaia-x.community/wip/vocab/resource#"
      },
      "@id": "did:web:ovh.provider.gaia-x.community/public/json-ld/location/09.json",
      "@type": "gax-participant:Location",
      "gax-participant:hasProvider": {
        "@id": "did:web:ovh.provider.gaia-x.community/public/json-ld/provider.json"
      },
      "gax-service:canHostServiceOffering": [
        {
          "@id": "did:web:ovh.provider.gaia-x.community/public/json-ld/service-offering/S-01.json"
        },
        {
          "@id": "did:web:ovh.provider.gaia-x.community/public/json-ld/service-offering/S-02.json"
        }
      ],
      "gax-participant:hasAdministrativeLocation": {
        "@value": "FR-59",
        "@type": "xsd:string"
      },
      "gax-participant:hasLocatedServiceOffering": [
        {
          "@id": "did:web:ovh.provider.gaia-x.community/public/json-ld/located-service-offering/S-01.json"
        },
        {
          "@id": "did:web:ovh.provider.gaia-x.community/public/json-ld/located-service-offering/S-02.json"
        }
      ]
    },
    {
      "@context": {
        "cred": "https://www.w3.org/2018/credentials/#",
        "gax-service": "https://schemas.abc-federation.gaia-x.community/wip/vocab/service#",
        "gax-compliance": "https://schemas.abc-federation.gaia-x.community/wip/vocab/compliance#",
        "xsd": "http://www.w3.org/2001/XMLSchema#",
        "gax-validation": "https://schemas.abc-federation.gaia-x.community/wip/vocab/validation#",
        "vcard": "http://www.w3.org/2006/vcard/ns#",
        "gax-core": "https://schemas.abc-federation.gaia-x.community/wip/vocab/core#",
        "gax-participant": "https://schemas.abc-federation.gaia-x.community/wip/vocab/participant#",
        "dct": "http://purl.org/dc/terms/",
        "sh": "http://www.w3.org/ns/shacl#",
        "gax-node": "https://schemas.abc-federation.gaia-x.community/wip/vocab/node#",
        "dcat": "http://www.w3.org/ns/dcat#",
        "gax-resource": "https://schemas.abc-federation.gaia-x.community/wip/vocab/resource#"
      },
      "@id": "did:web:ovh.provider.gaia-x.community/public/json-ld/location/13.json",
      "@type": "gax-participant:Location",
      "gax-participant:hasProvider": {
        "@id": "did:web:ovh.provider.gaia-x.community/public/json-ld/provider.json"
      },
      "gax-service:canHostServiceOffering": {
        "@id": "did:web:ovh.provider.gaia-x.community/public/json-ld/service-offering/S-02.json"
      },
      "gax-participant:hasAdministrativeLocation": {
        "@value": "GB-LND",
        "@type": "xsd:string"
      },
      "gax-participant:hasLocatedServiceOffering": {
        "@id": "did:web:ovh.provider.gaia-x.community/public/json-ld/located-service-offering/S-02.json"
      }
    },
    {
      "@context": {
        "cred": "https://www.w3.org/2018/credentials/#",
        "gax-service": "https://schemas.abc-federation.gaia-x.community/wip/vocab/service#",
        "gax-compliance": "https://schemas.abc-federation.gaia-x.community/wip/vocab/compliance#",
        "xsd": "http://www.w3.org/2001/XMLSchema#",
        "gax-validation": "https://schemas.abc-federation.gaia-x.community/wip/vocab/validation#",
        "vcard": "http://www.w3.org/2006/vcard/ns#",
        "gax-core": "https://schemas.abc-federation.gaia-x.community/wip/vocab/core#",
        "gax-participant": "https://schemas.abc-federation.gaia-x.community/wip/vocab/participant#",
        "dct": "http://purl.org/dc/terms/",
        "sh": "http://www.w3.org/ns/shacl#",
        "gax-node": "https://schemas.abc-federation.gaia-x.community/wip/vocab/node#",
        "dcat": "http://www.w3.org/ns/dcat#",
        "gax-resource": "https://schemas.abc-federation.gaia-x.community/wip/vocab/resource#"
      },
      "@id": "did:web:ovh.provider.gaia-x.community/public/json-ld/provider.json",
      "@type": "gax-participant:Provider",
      "gax-participant:hasLocations": [
        {
          "@id": "did:web:ovh.provider.gaia-x.community/public/json-ld/location/09.json"
        },
        {
          "@id": "did:web:ovh.provider.gaia-x.community/public/json-ld/location/12.json"
        },
        {
          "@id": "did:web:ovh.provider.gaia-x.community/public/json-ld/location/13.json"
        }
      ],
      "gax-participant:hasDidWeb": {
        "@value": "did:web:ovh.provider.gaia-x.community",
        "@type": "xsd:string"
      },
      "gax-participant:hasServiceOffering": [
        {
          "@id": "did:web:ovh.provider.gaia-x.community/public/json-ld/service-offering/S-01.json"
        },
        {
          "@id": "did:web:ovh.provider.gaia-x.community/public/json-ld/service-offering/S-02.json"
        }
      ],
      "gax-participant:registrationNumber": {
        "@value": "424 761 419 00045",
        "@type": "xsd:string"
      },
      "gax-participant:legalAddress": {
        "@type": "vcard:Address",
        "vcard:country-name": {
          "@value": "FR",
          "@type": "xsd:string"
        },
        "vcard:street-address": {
          "@value": "2 Rue Kellermann",
          "@type": "xsd:string"
        },
        "vcard:postal-code": {
          "@value": "59100",
          "@type": "xsd:string"
        },
        "vcard:locality": {
          "@value": "Roubaix",
          "@type": "xsd:string"
        }
      },
      "gax-participant:headquarterAddress": {
        "@type": "vcard:Address",
        "vcard:country-name": {
          "@value": "FR",
          "@type": "xsd:string"
        },
        "vcard:street-address": {
          "@value": "2 Rue Kellermann",
          "@type": "xsd:string"
        },
        "vcard:postal-code": {
          "@value": "59100",
          "@type": "xsd:string"
        },
        "vcard:locality": {
          "@value": "Roubaix",
          "@type": "xsd:string"
        }
      },
      "gax-participant:leiCode": {
        "@value": "969500Q2MA9VBQ8BG884",
        "@type": "xsd:string"
      },
      "gax-participant:termsAndConditions": {
        "@type": "gax-core:TermsAndConditions",
        "gax-core:Value": {
          "@value": "https://www.ovhcloud.com/fr/terms-and-conditions/",
          "@type": "xsd:anyURI"
        },
        "gax-core:hash": {
          "@value": "31296ef8727fc63e89213f3e5ab928bae7699b6dade0af5e443b8ad2623639ee8e6176696a1fa125ccfa7fa55465463b6424d3f54435d6a2beafd79a91425b0a",
          "@type": "xsd:string"
        }
      }
    },
    {
      "@context": {
        "cred": "https://www.w3.org/2018/credentials/#",
        "gax-service": "https://schemas.abc-federation.gaia-x.community/wip/vocab/service#",
        "gax-compliance": "https://schemas.abc-federation.gaia-x.community/wip/vocab/compliance#",
        "gax-validation": "https://schemas.abc-federation.gaia-x.community/wip/vocab/validation#",
        "vcard": "http://www.w3.org/2006/vcard/ns#",
        "gax-core": "https://schemas.abc-federation.gaia-x.community/wip/vocab/core#",
        "gax-participant": "https://schemas.abc-federation.gaia-x.community/wip/vocab/participant#",
        "dct": "http://purl.org/dc/terms/",
        "sh": "http://www.w3.org/ns/shacl#",
        "gax-node": "https://schemas.abc-federation.gaia-x.community/wip/vocab/node#",
        "dcat": "http://www.w3.org/ns/dcat#",
        "gax-resource": "https://schemas.abc-federation.gaia-x.community/wip/vocab/resource#"
      },
      "@id": "did:web:ovh.provider.gaia-x.community/public/json-ld/located-service-offering/S-02.json",
      "@type": "gax-service:LocatedServiceOffering",
      "gax-service:isImplementationOf": "did:web:ovh.provider.gaia-x.community/public/json-ld/service-offering/S-02.json",
      "gax-service:isHostedOn": [
        {
          "@id": "did:web:ovh.provider.gaia-x.community/public/json-ld/location/09.json"
        },
        {
          "@id": "did:web:ovh.provider.gaia-x.community/public/json-ld/location/13.json"
        }
      ]
    },
    {
      "@context": {
        "cred": "https://www.w3.org/2018/credentials/#",
        "gax-service": "https://schemas.abc-federation.gaia-x.community/wip/vocab/service#",
        "gax-compliance": "https://schemas.abc-federation.gaia-x.community/wip/vocab/compliance#",
        "gax-validation": "https://schemas.abc-federation.gaia-x.community/wip/vocab/validation#",
        "vcard": "http://www.w3.org/2006/vcard/ns#",
        "gax-core": "https://schemas.abc-federation.gaia-x.community/wip/vocab/core#",
        "gax-participant": "https://schemas.abc-federation.gaia-x.community/wip/vocab/participant#",
        "dct": "http://purl.org/dc/terms/",
        "sh": "http://www.w3.org/ns/shacl#",
        "gax-node": "https://schemas.abc-federation.gaia-x.community/wip/vocab/node#",
        "dcat": "http://www.w3.org/ns/dcat#",
        "gax-resource": "https://schemas.abc-federation.gaia-x.community/wip/vocab/resource#"
      },
      "@id": "did:web:ovh.provider.gaia-x.community/public/json-ld/located-service-offering/S-01.json",
      "@type": "gax-service:LocatedServiceOffering",
      "gax-service:isImplementationOf": "did:web:ovh.provider.gaia-x.community/public/json-ld/service-offering/S-01.json",
      "gax-service:isHostedOn": [
        {
          "@id": "did:web:ovh.provider.gaia-x.community/public/json-ld/location/09.json"
        },
        {
          "@id": "did:web:ovh.provider.gaia-x.community/public/json-ld/location/12.json"
        }
      ]
    },
    {
      "@context": {
        "cred": "https://www.w3.org/2018/credentials/#",
        "gax-service": "https://schemas.abc-federation.gaia-x.community/wip/vocab/service#",
        "gax-compliance": "https://schemas.abc-federation.gaia-x.community/wip/vocab/compliance#",
        "xsd": "http://www.w3.org/2001/XMLSchema#",
        "gax-validation": "https://schemas.abc-federation.gaia-x.community/wip/vocab/validation#",
        "vcard": "http://www.w3.org/2006/vcard/ns#",
        "gax-core": "https://schemas.abc-federation.gaia-x.community/wip/vocab/core#",
        "gax-participant": "https://schemas.abc-federation.gaia-x.community/wip/vocab/participant#",
        "dct": "http://purl.org/dc/terms/",
        "sh": "http://www.w3.org/ns/shacl#",
        "gax-node": "https://schemas.abc-federation.gaia-x.community/wip/vocab/node#",
        "dcat": "http://www.w3.org/ns/dcat#",
        "gax-resource": "https://schemas.abc-federation.gaia-x.community/wip/vocab/resource#"
      },
      "@id": "did:web:ovh.provider.gaia-x.community/public/json-ld/service-offering/S-02.json",
      "@type": "gax-service:ServiceOffering",
      "gax-service:providedBy": {
        "@id": "did:web:ovh.provider.gaia-x.community/public/json-ld/provider.json"
      },
      "gax-service:termsAndConditions": {
        "@type": "gax-core:TermsAndConditions",
        "gax-core:Value": {
          "@value": "https://www.ovhcloud.com/fr/terms-and-conditions/",
          "@type": "xsd:anyURI"
        },
        "gax-core:hash": {
          "@value": "31296ef8727fc63e89213f3e5ab928bae7699b6dade0af5e443b8ad2623639ee8e6176696a1fa125ccfa7fa55465463b6424d3f54435d6a2beafd79a91425b0a",
          "@type": "xsd:string"
        }
      },
      "gax-service:serviceTitle": {
        "@value": "AI Notebook",
        "@type": "xsd:string"
      },
      "gax-service:isAvailableOn": [
        {
          "@id": "did:web:ovh.provider.gaia-x.community/public/json-ld/location/09.json"
        },
        {
          "@id": "did:web:ovh.provider.gaia-x.community/public/json-ld/location/13.json"
        }
      ]
    },
    {
      "@context": {
        "cred": "https://www.w3.org/2018/credentials/#",
        "gax-service": "https://schemas.abc-federation.gaia-x.community/wip/vocab/service#",
        "gax-compliance": "https://schemas.abc-federation.gaia-x.community/wip/vocab/compliance#",
        "xsd": "http://www.w3.org/2001/XMLSchema#",
        "gax-validation": "https://schemas.abc-federation.gaia-x.community/wip/vocab/validation#",
        "vcard": "http://www.w3.org/2006/vcard/ns#",
        "gax-core": "https://schemas.abc-federation.gaia-x.community/wip/vocab/core#",
        "gax-participant": "https://schemas.abc-federation.gaia-x.community/wip/vocab/participant#",
        "dct": "http://purl.org/dc/terms/",
        "sh": "http://www.w3.org/ns/shacl#",
        "gax-node": "https://schemas.abc-federation.gaia-x.community/wip/vocab/node#",
        "dcat": "http://www.w3.org/ns/dcat#",
        "gax-resource": "https://schemas.abc-federation.gaia-x.community/wip/vocab/resource#"
      },
      "@id": "did:web:ovh.provider.gaia-x.community/public/json-ld/service-offering/S-01.json",
      "@type": "gax-service:ServiceOffering",
      "gax-service:providedBy": {
        "@id": "did:web:ovh.provider.gaia-x.community/public/json-ld/provider.json"
      },
      "gax-service:termsAndConditions": {
        "@type": "gax-core:TermsAndConditions",
        "gax-core:Value": {
          "@value": "https://www.ovhcloud.com/fr/terms-and-conditions/",
          "@type": "xsd:anyURI"
        },
        "gax-core:hash": {
          "@value": "31296ef8727fc63e89213f3e5ab928bae7699b6dade0af5e443b8ad2623639ee8e6176696a1fa125ccfa7fa55465463b6424d3f54435d6a2beafd79a91425b0a",
          "@type": "xsd:string"
        }
      },
      "gax-service:serviceTitle": {
        "@value": "AI Apps",
        "@type": "xsd:string"
      },
      "gax-service:isAvailableOn": [
        {
          "@id": "did:web:ovh.provider.gaia-x.community/public/json-ld/location/09.json"
        },
        {
          "@id": "did:web:ovh.provider.gaia-x.community/public/json-ld/location/12.json"
        }
      ]
    }
  ]
}