{
  "@context": {
    "legal-person": "https://schemas.abc-federation.gaia-x.community/wip/json-validation/legal-person.json#",
    "gax-participant": "https://schemas.abc-federation.gaia-x.community/wip/json-validation/participant.json#",
    "gax-provider": "https://schemas.abc-federation.gaia-x.community/wip/json-validation/provider.json#",
    "vcard": "https://www.w3.org/TR/vcard-rdf/"
  },
  "@graph": [
    {
      "@context": {
        "gax-service": "https://schemas.abc-federation.gaia-x.community/wip/json-validation/service-offering.json#"
      },
      "@id": "https://compliance4tf.byo-networks.net/tf/participant/a2e3df0baa66d4c02c484effa180095c7d62ec5b2d84c21f1c5ecb504eb1e5ce/service/9404702765ad9d797d475e68f36c7862cacaa273755ef2b1a0b79e85bb1743c3.jsonld",
      "@type": [
        "gax-service:ServiceOffering"
      ],
      "gax-service:providedBy": {
        "@id": "did:web:compliance4tf.byo-networks.net/tf/participant/a2e3df0baa66d4c02c484effa180095c7d62ec5b2d84c21f1c5ecb504eb1e5ce.jsonld",
        "@type": "gax-provider"
      },
      "gax-service:termsAndConditions": "OK",
      "gax-service:serviceTitle": "Object Storage S3",
      "gax-service:description": "Service offrant un object storage",
      "gax-service:keyword": [
        "service-category:storage",
        "service-type:object-storage"
      ]
    },
    {
      "@context": {
        "gax-service": "https://schemas.abc-federation.gaia-x.community/wip/json-validation/service-offering.json#"
      },
      "@id": "https://compliance4tf.byo-networks.net/tf/participant/a2e3df0baa66d4c02c484effa180095c7d62ec5b2d84c21f1c5ecb504eb1e5ce/service/b4a684ef8ac6950ac33fba392f3c0ce97e8399cb65668643bff8f0b0327bb3a7.jsonld",
      "@type": [
        "gax-service:ServiceOffering"
      ],
      "gax-service:providedBy": {
        "@id": "did:web:compliance4tf.byo-networks.net/tf/participant/a2e3df0baa66d4c02c484effa180095c7d62ec5b2d84c21f1c5ecb504eb1e5ce.jsonld",
        "@type": "gax-provider"
      },
      "gax-service:termsAndConditions": "OK",
      "gax-service:serviceTitle": "Block Storage",
      "gax-service:description": "Service offrant un block storage",
      "gax-service:keyword": [
        "service-category:storage",
        "service-type:block-storage"
      ]
    },
    {
      "@id": "did:web:compliance4tf.byo-networks.net/tf/participant/a2e3df0baa66d4c02c484effa180095c7d62ec5b2d84c21f1c5ecb504eb1e5ce.jsonld",
      "@type": [
        "legal-person",
        "gax-participant",
        "gax-provider"
      ],
      "legal-person:termsAndConditions": {
        "@type": "gax-core:TermsAndConditions",
        "@value": "c'est ok"
      },
      "legal-person:registrationNumber": "123456789",
      "legal-person:headquarterAddress": {
        "vcard:country-name": "FRA"
      },
      "legal-person:legalAddress": {
        "vcard:country-name": "FRA"
      },
      "gax-participant:hasDidWeb": "did:web:compliance4tf.byo-networks.net/tf/participant/a2e3df0baa66d4c02c484effa180095c7d62ec5b2d84c21f1c5ecb504eb1e5ce.jsonld",
      "gax-provider:hasLocations": [
        {
          "@context": {
            "gax-location": "https://schemas.abc-federation.gaia-x.community/wip/json-validation/location.json#"
          },
          "@id": "https://compliance4tf.byo-networks.net/tf/participant/a2e3df0baa66d4c02c484effa180095c7d62ec5b2d84c21f1c5ecb504eb1e5ce/location/0f5671430b590a041621c616c4869e0dc2ed0d076698031b1278ca92721d81a9.jsonld",
          "@type": [
            "gax-location"
          ]
        },
        {
          "@context": {
            "gax-location": "https://schemas.abc-federation.gaia-x.community/wip/json-validation/location.json#"
          },
          "@id": "https://compliance4tf.byo-networks.net/tf/participant/a2e3df0baa66d4c02c484effa180095c7d62ec5b2d84c21f1c5ecb504eb1e5ce/location/aa5ac918255e76693978d9891f9e32e6bca8ec5fea40088956f863a3c5fa20fc.jsonld",
          "@type": [
            "gax-location"
          ]
        }
      ],
      "gax-provider:hasServices": [
        {
          "@id": "https://compliance4tf.byo-networks.net/tf/participant/a2e3df0baa66d4c02c484effa180095c7d62ec5b2d84c21f1c5ecb504eb1e5ce/service/9404702765ad9d797d475e68f36c7862cacaa273755ef2b1a0b79e85bb1743c3.jsonld",
          "@type": [
            "gax-service:ServiceOffering"
          ]
        },
        {
          "@id": "https://compliance4tf.byo-networks.net/tf/participant/a2e3df0baa66d4c02c484effa180095c7d62ec5b2d84c21f1c5ecb504eb1e5ce/service/b4a684ef8ac6950ac33fba392f3c0ce97e8399cb65668643bff8f0b0327bb3a7.jsonld",
          "@type": [
            "gax-service:ServiceOffering"
          ]
        }
      ],
      "hasVC": []
    }
  ]
}